28
C14N2H10O2
C        0.645467000     -0.398530000     -0.792458000
C        1.930777000      0.133179000     -0.918262000
C        0.095213000     -0.617502000      0.475705000
C        2.672704000      0.442979000      0.234541000
C        2.122367000      0.215832000      1.510299000
C        0.835597000     -0.308032000      1.625378000
H        2.367249000      0.310810000     -1.893045000
C        4.022063000      0.998476000      0.104704000
H        0.074146000     -0.639150000     -1.682586000
H       -0.903860000     -1.030557000      0.569703000
H        2.710317000      0.448068000      2.390478000
H        0.411634000     -0.482595000      2.608441000
N        4.618808000      1.565875000      1.111643000
O        6.049338000      1.913174000      0.746370000
O        4.599224000      0.876121000     -1.152409000
N        5.466264000      2.057885000     -1.543095000
C        6.187386000      2.440953000     -0.530513000
C        7.210164000      3.479726000     -0.675687000
C        7.735462000      4.108935000      0.466068000
C        7.667609000      3.844915000     -1.956043000
C        8.709137000      5.100041000      0.324110000
C        8.635001000      4.839993000     -2.087659000
C        9.158414000      5.468766000     -0.949190000
H        7.376950000      3.816571000      1.444998000
H        7.263015000      3.342646000     -2.826834000
H        9.114240000      5.584948000      1.205764000
H        8.986826000      5.120900000     -3.074527000
H        9.915005000      6.239383000     -1.055492000
