BBMTD simulation set. The collective variable (CV) is:
CV =  +-0.250 *  r(C4 -- N13)  +0.250 *  r(C8 -- C4)  +0.250 *  r(N13 -- O14)  +0.250 *  r(O15 -- S16) 
 The reduced mass of the CV is    29.1363 a.m.u.
 The MTD update time is 10.00000 fs
 The MTD bias potential height is 115.71558 cm^{-1}
Running the NVT (Berendsen) dynamics! Yay!
orca5 QC interface requested
Number of steps in the NVE MD simulation = 5000 
The MTD CV trajectory will be updated each 10 steps
Something went extremely bad: 

>     .... aborting the run
file mol_orca.densities was removed
file mol_orca.engrad was removed
file mol_orca.gbw was removed
file mol_orca.ges was removed
file mol_orca_property.txt was removed
