3
Coordinates from ORCA-job mol E -548.241798787369
  S       0.000000      0.000000      0.363168
  O       0.000000      1.228797     -0.363168
  O       0.000000     -1.228797     -0.363168
3
Coordinates from ORCA-job mol E -548.289480523453
  S       0.000000      0.000000      0.399085
  O       0.000000      1.293319     -0.381126
  O       0.000000     -1.293319     -0.381126
3
Coordinates from ORCA-job mol E -548.304095511432
  S       0.000000     -0.000000      0.435362
  O       0.000000      1.333204     -0.399265
  O       0.000000     -1.333204     -0.399265
3
Coordinates from ORCA-job mol E -548.306242519437
  S       0.000000     -0.000000      0.455966
  O       0.000000      1.349142     -0.409567
  O       0.000000     -1.349142     -0.409567
3
Coordinates from ORCA-job mol E -548.306362586947
  S       0.000000     -0.000000      0.462786
  O       0.000000      1.352454     -0.412977
  O       0.000000     -1.352454     -0.412977
3
Coordinates from ORCA-job mol E -548.306364494003
  S       0.000000     -0.000000      0.464015
  O       0.000000      1.352283     -0.413591
  O       0.000000     -1.352283     -0.413591
3
Coordinates from ORCA-job mol E -548.306364938571
  S       0.000000     -0.000000      0.464422
  O       0.000000      1.351922     -0.413795
  O       0.000000     -1.351922     -0.413795
