17
Coordinates from ORCA-job mol_initial_path E   0.000000000000
  C      -2.380317     -0.559728     -0.230534
  C      -1.380957      0.401482     -0.368998
  C      -2.086831     -1.806297      0.339730
  C      -0.072050      0.117650      0.064812
  C       0.222977     -1.132207      0.634183
  C      -0.785842     -2.088506      0.770310
  H      -1.596625      1.367329     -0.810626
  C       0.974035      1.126595     -0.077771
  H      -3.387323     -0.338785     -0.567516
  H      -2.868210     -2.551520      0.446094
  H       1.233096     -1.342986      0.962674
  H      -0.555390     -3.052316      1.211267
  N       0.783289      2.298475     -0.601395
  O       1.936802      3.108492     -0.614605
  O       2.243649      0.784416      0.396092
  S       3.497016      2.077202     -0.107066
  O       4.222682      1.590702     -1.446651
17
Coordinates from ORCA-job mol_initial_path E   0.000000000000
  C      -2.448181     -0.504945      0.095381
  C      -1.491391      0.488266     -0.136249
  C      -2.051266     -1.808914      0.416410
  C      -0.126000      0.175968     -0.033411
  C       0.270427     -1.120900      0.330623
  C      -0.684784     -2.113621      0.533860
  H      -1.796182      1.492237     -0.399196
  C       0.901399      1.187638     -0.319559
  H      -3.499163     -0.260647      0.007486
  H      -2.797015     -2.583488      0.546312
  H       1.326848     -1.369311      0.406058
  H      -0.376684     -3.128747      0.757946
  N       1.055477      1.811523     -1.433584
  O       2.203535      2.645795     -1.454698
  O       1.802464      1.387899      0.729914
  S       3.273766      2.371573      0.144971
  O       4.436749      1.329674     -0.192264
17
Coordinates from ORCA-job mol_initial_path E   0.000000000000
  C      -2.480432     -0.522162      0.130762
  C      -1.543577      0.495097     -0.096392
  C      -2.057214     -1.824955      0.420275
  C      -0.171048      0.209120      0.003705
  C       0.250661     -1.118535      0.189362
  C      -0.687790     -2.125099      0.427324
  H      -1.875841      1.494482     -0.352240
  C       0.906520      1.277091     -0.129358
  H      -3.542557     -0.296222      0.099740
  H      -2.786118     -2.604989      0.620111
  H       1.309261     -1.352519      0.147160
  H      -0.353344     -3.139927      0.622303
  N       1.149333      1.450584     -1.377140
  O       2.438706      2.405782     -1.538326
  O       1.596324      1.810305      0.909412
  S       3.395532      2.521599     -0.043368
  O       4.451582      1.320348     -0.033330
17
Coordinates from ORCA-job mol_initial_path E   0.000000000000
  C      -2.489418     -0.520786      0.134239
  C      -1.559191      0.486731     -0.133395
  C      -2.053618     -1.822922      0.423749
  C      -0.191889      0.176933     -0.087364
  C       0.254275     -1.135169      0.144939
  C      -0.683971     -2.127596      0.430065
  H      -1.879185      1.492602     -0.378801
  C       0.921139      1.336754     -0.002157
  H      -3.549209     -0.297619      0.111604
  H      -2.781277     -2.604119      0.623266
  H       1.313747     -1.354797      0.118502
  H      -0.352153     -3.137952      0.637556
  N       0.915002      1.267109     -1.278092
  O       2.631295      2.526589     -1.550703
  O       1.498609      1.837973      1.004469
  S       3.526394      2.583264     -0.163448
  O       4.479450      1.293005     -0.034428
17
Coordinates from ORCA-job mol_initial_path E   0.000000000000
  C      -2.502250     -0.535946      0.147972
  C      -1.584950      0.468348     -0.181192
  C      -2.068818     -1.826816      0.431494
  C      -0.227111      0.104733     -0.268709
  C       0.236252     -1.147684      0.095545
  C      -0.688925     -2.138906      0.440381
  H      -1.884705      1.474778     -0.408658
  C       1.031201      1.483961      0.060145
  H      -3.565989     -0.296591      0.135312
  H      -2.788038     -2.612417      0.629559
  H       1.305099     -1.359252      0.082837
  H      -0.352273     -3.140711      0.659245
  N       0.738306      1.118659     -1.093229
  O       2.726912      2.585315     -1.567667
  O       1.493402      1.904603      1.096229
  S       3.636847      2.633403     -0.224302
  O       4.495041      1.284524     -0.034962
17
Coordinates from ORCA-job mol_initial_path E   0.000000000000
  C      -2.551642     -0.587584      0.130013
  C      -1.647945      0.389682     -0.279281
  C      -2.097531     -1.875522      0.436924
  C      -0.306531      0.040039     -0.400102
  C       0.188021     -1.198421      0.008562
  C      -0.730485     -2.167882      0.410202
  H      -1.942148      1.410611     -0.488539
  C       1.123018      1.639456      0.156324
  H      -3.600509     -0.337178      0.187686
  H      -2.810776     -2.644291      0.705933
  H       1.255806     -1.386984      0.001306
  H      -0.373118     -3.147661      0.697712
  N       0.615953      1.081659     -0.806365
  O       2.856100      2.690836     -1.555586
  O       1.626573      2.143045      1.119737
  S       3.882853      2.703550     -0.303491
  O       4.512361      1.246646     -0.021036
17
Coordinates from ORCA-job mol_initial_path E   0.000000000000
  C      -2.655284     -0.916768      0.211021
  C      -2.032260      0.328611      0.098501
  C      -1.889654     -2.087503      0.272070
  C      -0.632525      0.394701      0.046399
  C       0.146916     -0.773713      0.103324
  C      -0.492198     -2.009905      0.216804
  H      -2.610319      1.244145      0.050548
  C       0.899177      2.401072     -0.126976
  H      -3.738055     -0.970869      0.250682
  H      -2.377561     -3.052540      0.360672
  H       1.227238     -0.694970      0.056311
  H       0.105489     -2.914452      0.261743
  N      -0.018037      1.641309     -0.060166
  O       4.909861      1.913512     -1.494996
  O       1.773525      3.239282     -0.197311
  S       4.177751      1.771963     -0.069108
  O       3.205935      0.486125      0.020481
