!r2SCAN-3c D4
%base "neb1"
! NEB
! miniPRINT
! Mass2016

%pal
nprocs 16    # parallel execution
end

%neb
NEB_End_XYZFile "fin.xyz"  # mention the final. xyz file
Nimages 5                                    # mention the number of points/step you want in between the initial and the final conformer.
end


*xyzfile 0 1 ini.xyz
