 17
 
 C     0.0230	 0.1762    0.2405  
 C     1.0028	 1.1010   -0.1281  
 C     0.3908	-1.1086    0.6509  
 C     2.3520	 0.7389   -0.0597  
 C     2.7149	-0.5609    0.3385  
 C     1.7306	-1.4794    0.6885  
 H     0.7129	 2.1040   -0.4369  
 C     3.4181	 1.7350   -0.3354  
 H    -1.0247	 0.4544    0.2159  
 H    -0.3789	-1.8228    0.9410  
 H     3.7616	-0.8569    0.3809  
 H     2.0099	-2.4852    1.0009  
 N     3.4854	 2.6045   -1.2955  
 O     4.7059	 3.2952   -1.1103  
 O     4.3728	 1.6989    0.6143  
 S     5.3745	 2.9019    0.3078  
 O     6.7228	 2.3008    0.0574  
