17
Coordinates from ORCA-job mol
  C   -0.08352188621667      0.06870255436654     -0.14048003703636
  C   0.67520756678055      1.22586363509874     -0.31597288833106
  C   0.50063566086717     -1.08161644921543      0.40544910418145
  C   2.03440618319372      1.22821058964355      0.06062952609386
  C   2.62546295558416      0.07093599032747      0.61393362777797
  C   1.85026259498276     -1.07639256625202      0.78050331484289
  H   0.23005747908844      2.12019524027876     -0.73731107921821
  C   2.83748933714794      2.39015859719234     -0.10646469500719
  H   -1.12911810712540      0.06409676884132     -0.42826702307821
  H   -0.09485625597269     -1.97853989290407      0.53894490216738
  H   3.66815473250791      0.10547422023321      0.90662772311811
  H   2.30055358616537     -1.96697384522647      1.20504860039010
  N   3.52191435245551      3.32650878126781     -0.25624304892352
  O   4.39212131032562      4.24719672095546     -0.31162541639269
  O   5.15247091933573      1.85865991491837      1.39134691295216
  S   6.24669718089732      2.99947601514986      1.01523303409557
  O   7.28066238998231      2.51454372532447     -0.12395255763228
